<svg xmlns="http://www.w3.org/2000/svg" width="11" height="19" viewBox="0 0 11 19">
  <metadata><?xpacket begin="﻿" id="W5M0MpCehiHzreSzNTczkc9d"?>
<x:xmpmeta xmlns:x="adobe:ns:meta/" x:xmptk="Adobe XMP Core 5.6-c138 79.159824, 2016/09/14-01:09:01        ">
   <rdf:RDF xmlns:rdf="http://www.w3.org/1999/02/22-rdf-syntax-ns#">
      <rdf:Description rdf:about=""/>
   </rdf:RDF>
</x:xmpmeta>
                                                                                                    
                                                                                                    
                                                                                                    
                                                                                                    
                                                                                                    
                                                                                                    
                                                                                                    
                                                                                                    
                                                                                                    
                                                                                                    
                                                                                                    
                                                                                                    
                                                                                                    
                                                                                                    
                                                                                                    
                                                                                                    
                                                                                                    
                                                                                                    
                                                                                                    
                                                                                                    
                           
<?xpacket end="w"?></metadata>
<defs>
    <style>
      .cls-1 {
        fill: #4d3526;
        fill-rule: evenodd;
      }
    </style>
  </defs>
  <path id="datepicker-arrow-l" class="cls-1" d="M1216.01,2030.48l-7.27,7.56h0l-0.28.29a1.692,1.692,0,0,0,0,2.33l0.28,0.29h0l7.27,7.57a1.547,1.547,0,0,0,2.24,0l0.28-.29a1.692,1.692,0,0,0,0-2.33l-6.15-6.4,6.15-6.4a1.692,1.692,0,0,0,0-2.33l-0.28-.29A1.53,1.53,0,0,0,1216.01,2030.48Z" transform="translate(-1208 -2030)"/>
</svg>
